taille cpu gpu_32_thread_par_block gpu_512_thread_par_block gpu_1024_thread_par_block
65536 0.00039915 8.0031e-05 7.644e-06 5.55e-06
262144 0.000383556 3.6643e-05 4.8e-06 3.593e-06
1048576 0.000541982 3.68e-05 5.132e-06 4.122e-06
4194304 0.00130778 4.644e-05 5.476e-06 3.939e-06
16777216 0.00872041 5.0215e-05 5.196e-06 4.15e-06
67108864 0.015804 5.4452e-05 5.924e-06 4.741e-06
268435456 0.041308 5.396e-05 7.599e-06 6.448e-06