THREADS 2
1024 0.40916
1228 0.438469
1473 0.504656
1767 0.561334
2120 0.649305
2544 0.735886
3052 0.80418
3662 0.875591
4394 0.988231
5272 1.06929
6326 1.16825
7591 1.25676
9109 1.33967
10930 1.40687
13116 1.47735
15739 1.55193
18886 1.62028
22663 1.66747
27195 1.71162
32634 1.79541
39160 1.93074
46992 2.08135
56390 2.31183
67668 2.49601
81201 2.42498
97441 2.27411
116929 2.07865
140314 1.95453
168376 1.92196
202051 1.90935
242461 1.92183
290953 1.91812
349143 1.92254
418971 1.92463
502765 1.92139
603318 1.92148
723981 1.92307
868777 1.90993
1042532 1.91612
1251038 1.9049
1501245 1.91001
1801494 1.91971
2161792 1.92278
2594150 1.83719
3112980 1.93481
3735576 1.93657
THREADS 4
1024 0.414953
1228 0.436568
1473 0.510786
1767 0.592209
2120 0.69833
2544 0.819045
3052 0.97135
3662 1.06872
4394 1.28361
5272 1.39267
6326 1.64148
7591 1.8384
9109 1.91074
10930 2.12123
13116 2.27778
15739 2.51233
18886 2.67034
22663 2.7971
27195 3.04537
32634 3.17599
39160 3.32751
46992 3.77446
56390 4.33493
67668 4.81527
81201 4.98771
97441 5.08337
116929 5.15269
140314 4.95935
168376 4.7844
202051 4.49942
242461 4.01431
290953 3.85641
349143 3.79816
418971 3.79635
502765 3.80374
603318 3.8305
723981 3.85886
868777 3.81928
1042532 3.74746
1251038 3.76195
1501245 3.73016
1801494 3.74317
2161792 3.78483
2594150 3.81843
3112980 3.85543
3735576 3.89813
THREADS 6
1024 0.399116
1228 0.4315
1473 0.509308
1767 0.600536
2120 0.702041
2544 0.828561
3052 0.96455
3662 1.11666
4394 1.28859
5272 1.55942
6326 1.79213
7591 1.93263
9109 2.25616
10930 2.45959
13116 2.68775
15739 2.96555
18886 3.22824
22663 3.55054
27195 3.77729
32634 4.09558
39160 4.56967
46992 5.26379
56390 6.008
67668 6.62597
81201 7.11583
97441 7.27726
116929 7.5043
140314 7.54923
168376 7.51043
202051 7.38933
242461 7.18104
290953 6.72827
349143 6.12599
418971 5.78576
502765 5.64224
603318 5.66102
723981 5.71933
868777 5.76235
1042532 5.65506
1251038 5.57224
1501245 5.51296
1801494 5.55082
2161792 5.56688
2594150 5.41676
3112980 5.20358
3735576 5.02375
THREADS 8
1024 0.379344
1228 0.410173
1473 0.466765
1767 0.571175
2120 0.701628
2544 0.798742
3052 0.919674
3662 1.08709
4394 1.32677
5272 1.49667
6326 1.72111
7591 1.97547
9109 2.32204
10930 2.50357
13116 2.90113
15739 3.27953
18886 3.63273
22663 3.98419
27195 4.42945
32634 4.90795
39160 5.4643
46992 6.22664
56390 7.42273
67668 8.10844
81201 8.62311
97441 9.04889
116929 9.38518
140314 9.61957
168376 9.86838
202051 10.0209
242461 9.6775
290953 9.86488
349143 9.19851
418971 8.41463
502765 7.77268
603318 7.51065
723981 7.52808
868777 7.59149
1042532 7.62117
1251038 7.49311
1501245 7.33176
1801494 7.21523
2161792 6.64411
2594150 6.11343
3112980 5.77424
3735576 5.57305
THREADS 10
1024 0.331988
1228 0.373744
1473 0.45278
1767 0.528136
2120 0.634817
2544 0.751465
3052 0.913917
3662 1.06151
4394 1.24749
5272 1.43115
6326 1.72906
7591 2.02002
9109 2.24527
10930 2.6528
13116 3.01972
15739 3.35892
18886 3.88686
22663 4.22443
27195 4.6373
32634 5.2479
39160 5.92579
46992 6.86313
56390 8.08731
67668 9.39056
81201 10.1943
97441 10.5244
116929 11.0108
140314 11.3596
168376 11.7414
202051 12.0973
242461 12.2771
290953 12.6048
349143 12.317
418971 11.8465
502765 10.7005
603318 9.85996
723981 9.27213
868777 9.33455
1042532 9.47911
1251038 9.44042
1501245 9.15785
1801494 8.63874
2161792 7.42144
2594150 6.68928
3112980 6.28697
3735576 5.92645
THREADS 12
1024 0.301263
1228 0.332676
1473 0.395253
1767 0.469805
2120 0.562571
2544 0.640405
3052 0.781435
3662 0.970157
4394 1.16657
5272 1.37233
6326 1.62052
7591 1.88436
9109 2.2282
10930 2.40428
13116 2.92863
15739 3.40944
18886 3.66439
22663 4.24543
27195 4.70695
32634 5.48612
39160 6.2068
46992 7.38472
56390 8.62963
67668 9.67701
81201 11.0412
97441 11.9318
116929 12.3163
140314 12.8725
168376 13.3943
202051 13.8322
242461 14.2235
290953 14.5744
349143 14.5517
418971 14.5392
502765 13.6432
603318 12.5543
723981 11.4137
868777 11.0794
1042532 11.1677
1251038 11.1685
1501245 10.627
1801494 9.74295
2161792 8.11771
2594150 7.45967
3112980 6.58646
3735576 6.21506
THREADS 14
1024 0.267526
1228 0.28526
1473 0.348815
1767 0.419914
2120 0.478943
2544 0.607298
3052 0.681722
3662 0.836395
4394 1.05922
5272 1.2288
6326 1.43501
7591 1.78456
9109 1.99533
10930 2.17836
13116 2.6471
15739 3.03447
18886 3.57056
22663 3.95679
27195 4.70304
32634 5.25601
39160 6.151
46992 7.65324
56390 9.12656
67668 10.5665
81201 11.663
97441 12.5606
116929 13.3432
140314 13.9892
168376 14.6201
202051 15.3604
242461 15.8107
290953 16.4169
349143 16.2593
418971 16.9332
502765 16.7504
603318 16.048
723981 14.737
868777 12.8482
1042532 12.3552
1251038 12.3176
1501245 11.918
1801494 10.8538
2161792 8.82832
2594150 7.59998
3112980 6.84321
3735576 6.38041
THREADS 16
1024 0.237192
1228 0.244156
1473 0.310187
1767 0.369796
2120 0.451434
2544 0.519529
3052 0.670243
3662 0.777309
4394 0.908372
5272 1.11229
6326 1.30727
7591 1.56489
9109 1.78963
10930 2.07286
13116 2.40397
15739 2.86936
18886 3.43654
22663 4.00334
27195 4.48393
32634 5.15637
39160 6.0991
46992 7.72111
56390 9.16601
67668 10.7827
81201 11.9105
97441 13.0906
116929 13.8381
140314 14.9722
168376 15.7325
202051 16.2532
242461 17.2662
290953 17.8953
349143 18.447
418971 18.9006
502765 19.0154
603318 18.9507
723981 17.7243
868777 15.278
1042532 13.332
1251038 12.9747
1501245 12.6651
1801494 11.9122
2161792 9.51163
2594150 7.93415
3112980 6.97994
3735576 6.45892
THREADS 18
1024 0.208014
1228 0.219681
1473 0.27618
1767 0.311763
2120 0.389212
2544 0.446874
3052 0.541161
3662 0.665483
4394 0.836292
5272 0.979682
6326 1.17881
7591 1.36386
9109 1.68167
10930 2.02873
13116 2.25038
15739 2.78793
18886 3.18296
22663 3.73665
27195 4.29204
32634 5.10923
39160 5.83044
46992 7.49345
56390 8.98599
67668 10.7017
81201 12.115
97441 13.0521
116929 14.204
140314 15.583
168376 16.3453
202051 17.3706
242461 18.2997
290953 19.0492
349143 19.8759
418971 20.4702
502765 21.1024
603318 21.1852
723981 20.8874
868777 18.9926
1042532 15.3416
1251038 13.8787
1501245 13.278
1801494 12.4749
2161792 10.2295
2594150 8.16894
3112980 7.09915
3735576 6.50727
THREADS 20
1024 0.192082
1228 0.190116
1473 0.244293
1767 0.301912
2120 0.371356
2544 0.425657
3052 0.534251
3662 0.639682
4394 0.726742
5272 0.90576
6326 1.05336
7591 1.29492
9109 1.53156
10930 1.81192
13116 2.19671
15739 2.63875
18886 3.05869
22663 3.60526
27195 4.0286
32634 4.93488
39160 5.77798
46992 6.91218
56390 8.95979
67668 10.549
81201 11.777
97441 13.3959
116929 14.7805
140314 16.0566
168376 17.0212
202051 18.1554
242461 19.1487
290953 20.1812
349143 21.0854
418971 21.7918
502765 22.7307
603318 23.4731
723981 23.4459
868777 22.5394
1042532 18.4436
1251038 14.9479
1501245 13.9683
1801494 13.071
2161792 10.8416
2594150 8.45562
3112980 7.13457
3735576 6.48408
THREADS 22
1024 0.0221518
1228 0.0233474
1473 0.0280094
1767 0.0335355
2120 0.0401614
2544 0.0481284
3052 0.0576638
3662 0.0691463
4394 0.0827528
5272 0.0992587
6326 0.118777
7591 0.142181
9109 0.170492
10930 0.204084
13116 0.244069
15739 0.290143
18886 0.348636
22663 0.415481
27195 0.496501
32634 0.615755
39160 0.738039
46992 0.942866
56390 1.23614
67668 1.6014
81201 1.87859
97441 2.22967
116929 2.53846
140314 2.9927
168376 3.41769
202051 3.99322
242461 4.46089
290953 4.33496
349143 4.54267
418971 4.97
502765 5.64147
603318 5.97331
723981 6.5219
868777 7.10683
1042532 7.63822
1251038 8.0833
1501245 7.86409
1801494 7.6597
2161792 6.87808
2594150 6.13595
3112980 5.44284
3735576 5.30376
THREADS 24
1024 0.019442
1228 0.020576
1473 0.0246128
1767 0.0295187
2120 0.0353462
2544 0.0422978
3052 0.0506532
3662 0.0607062
4394 0.0728388
5272 0.0872805
6326 0.104667
7591 0.125053
9109 0.150316
10930 0.180184
13116 0.215444
15739 0.257299
18886 0.307487
22663 0.366888
27195 0.44099
32634 0.532423
39160 0.657516
46992 0.803496
56390 1.05413
67668 1.33032
81201 1.62701
97441 1.97542
116929 2.20722
140314 2.5368
168376 2.94526
202051 3.43539
242461 3.99685
290953 4.43369
349143 4.83241
418971 5.11389
502765 5.48224
603318 6.13441
723981 6.63674
868777 7.04914
1042532 8.02198
1251038 8.52944
1501245 8.01405
1801494 8.26692
2161792 7.46995
2594150 6.56272
3112980 6.10941
3735576 5.59514
THREADS 26
1024 0.0172426
1228 0.0182377
1473 0.0218171
1767 0.0261776
2120 0.0313452
2544 0.0374741
3052 0.0448965
3662 0.0538672
4394 0.0644346
5272 0.0773217
6326 0.0926634
7591 0.111147
9109 0.133015
10930 0.159455
13116 0.191675
15739 0.227938
18886 0.273866
22663 0.324472
27195 0.386466
32634 0.474936
39160 0.573533
46992 0.759677
56390 0.979952
67668 1.1797
81201 1.41011
97441 1.71948
116929 1.9835
140314 2.30559
168376 2.70877
202051 3.08683
242461 3.47256
290953 4.10051
349143 4.83789
418971 5.49343
502765 5.92624
603318 6.09566
723981 6.92546
868777 7.31224
1042532 8.08352
1251038 8.9659
1501245 8.69645
1801494 8.6593
2161792 8.09231
2594150 6.99685
3112980 6.29198
3735576 6.01292
THREADS 28
1024 0.0156211
1228 0.0164895
1473 0.019841
1767 0.0236511
2120 0.0284262
2544 0.0340317
3052 0.0407787
3662 0.0489206
4394 0.0583475
5272 0.0698073
6326 0.0843284
7591 0.101244
9109 0.121521
10930 0.145456
13116 0.173983
15739 0.207896
18886 0.248886
22663 0.295122
27195 0.358892
32634 0.427565
39160 0.534291
46992 0.695686
56390 0.902056
67668 1.11106
81201 1.3644
97441 1.60177
116929 1.9007
140314 2.25772
168376 2.50921
202051 2.97933
242461 3.40714
290953 3.89732
349143 4.54185
418971 5.40643
502765 5.82365