THREADS 4
1024 0.417181
1228 0.421063
1473 0.514286
1767 0.651707
2120 0.759007
2544 0.796601
3052 1.00091
3662 1.156
4394 1.33137
5272 1.38152
6326 1.63147
7591 1.82662
9109 1.94263
10930 2.10438
13116 2.2889
15739 2.53232
18886 2.71503
22663 2.829
27195 3.00814
32634 3.24852
39160 3.39517
46992 3.75861
56390 4.40407
67668 4.82562
81201 4.99275
97441 5.12429
116929 5.0538
140314 5.04512
168376 4.86086
202051 4.47678
242461 3.99569
290953 3.80218
349143 3.75887
418971 3.76783
502765 3.77692
603318 3.7784
723981 3.81046
868777 3.76842
1042532 3.74663
1251038 3.7012
1501245 3.70107
1801494 3.73783
2161792 3.77553
2594150 3.95806
3112980 3.81968
3735576 3.83817
THREADS 8
1024 0.373829
1228 0.406188
1473 0.483528
1767 0.57167
2120 0.675385
2544 0.807166
3052 0.932611
3662 1.10208
4394 1.29025
5272 1.5161
6326 1.68699
7591 1.9872
9109 2.29337
10930 2.45608
13116 2.85828
15739 3.28173
18886 3.51233
22663 3.94641
27195 4.20313
32634 4.73863
39160 5.38421
46992 6.09382
56390 7.21512
67668 8.08655
81201 8.64336
97441 9.03082
116929 9.33328
140314 9.59591
168376 9.79035
202051 9.99254
242461 9.85714
290953 9.60494
349143 9.25003
418971 8.2581
502765 7.72148
603318 7.47694
723981 7.51237
868777 7.65724
1042532 7.66155
1251038 7.42828
1501245 7.32393
1801494 7.24309
2161792 6.64402
2594150 6.37292
3112980 5.77406
3735576 5.5559
THREADS 12
1024 0.298563
1228 0.324082
1473 0.400334
1767 0.461914
2120 0.565627
2544 0.700231
3052 0.812987
3662 0.987827
4394 1.15324
5272 1.3377
6326 1.58324
7591 1.7468
9109 2.15291
10930 2.55883
13116 3.09353
15739 3.2761
18886 3.83574
22663 4.14758
27195 4.98157
32634 5.18711
39160 5.95638
46992 7.37937
56390 8.8214
67668 9.92565
81201 11.0712
97441 11.7829
116929 12.289
140314 12.551
168376 13.3761
202051 13.8157
242461 14.2276
290953 14.6123
349143 14.7491
418971 14.5256
502765 13.2626
603318 12.6527
723981 11.7213
868777 11.1565
1042532 11.2763
1251038 11.1815
1501245 10.7421
1801494 9.822
2161792 8.16804
2594150 7.19587
3112980 6.59156
3735576 6.23648
THREADS 16
1024 0.240781
1228 0.24433
1473 0.312668
1767 0.374094
2120 0.442235
2544 0.539164
3052 0.761158
3662 0.780292
4394 0.881057
5272 1.06428
6326 1.34563
7591 1.69455
9109 1.85621
10930 2.14406
13116 2.44459
15739 2.99537
18886 3.49394
22663 3.8692
27195 4.591
32634 4.85341
39160 6.27886
46992 7.84709
56390 9.00679
67668 10.5449
81201 11.9889
97441 12.9978
116929 14.0465
140314 19.3591
168376 15.7223
202051 16.4829
242461 17.1408
290953 17.7723
349143 18.4084
418971 8.94709
502765 19.7184
603318 19.1286
723981 18.3186
868777 15.9132
1042532 13.7532
1251038 13.5835
1501245 12.7282
1801494 11.792
2161792 9.54484
2594150 7.91773
3112980 7.10039
3735576 6.53107
THREADS 20
1024 0.0213744
1228 0.200968
1473 0.241938
1767 0.297852
2120 0.0100798
2544 0.42654
3052 0.494897
3662 0.561069
4394 0.748506
5272 0.88105
6326 1.01455
7591 1.25883
9109 1.56308
10930 1.86968
13116 2.1665
15739 2.4518
18886 2.85176
22663 3.56038
27195 4.04487
32634 4.83201
39160 5.77187
46992 7.34302
56390 8.98925
67668 10.7875
81201 12.5311
97441 13.725
116929 15.0077
140314 16.7653
168376 17.8228
202051 18.9375
242461 19.8889
290953 20.9354
349143 21.9977
418971 22.8154
502765 0.0554259
603318 23.2252
723981 23.047
868777 21.9014
1042532 18.1556
1251038 14.9227
1501245 13.8063
1801494 13.0192
2161792 10.9188
2594150 8.46093
3112980 7.15892
3735576 6.47539
THREADS 24
1024 0.0193762
1228 0.0205065
1473 0.0245094
1767 0.029411
2120 0.0351964
2544 0.042136
3052 0.0483226
3662 0.0578305
4394 0.0695276
5272 0.0833105
6326 0.0997223
7591 0.119264
9109 0.143427
10930 0.171488
13116 0.20507
15739 0.24492
18886 0.292261
22663 0.348607
27195 0.41232
32634 0.497832
39160 0.595281
46992 0.784384
56390 1.03601
67668 1.29359
81201 1.53792
97441 1.82678
116929 2.10874
140314 2.56232
168376 2.84192
202051 3.44889
242461 3.76346
290953 4.27818
349143 4.74701
418971 5.22352
502765 5.65908
603318 6.34889
723981 6.60919
868777 7.21234
1042532 3.60739
1251038 8.587
1501245 8.42977
1801494 8.10261
2161792 7.66202
2594150 6.6172
3112980 6.14872
3735576 5.71383
THREADS 28
1024 0.0146175
1228 0.0154033
1473 0.0185226
1767 0.0221489
2120 0.0266242
2544 0.0318407
3052 0.0381761
3662 0.0457379
4394 0.0545534
5272 0.0656127
6326 0.0785145
7591 0.0940777
9109 0.113062
10930 0.135029
13116 0.162834
15739 0.193878
18886 0.231391
22663 0.277485
27195 0.336886
32634 0.398321
39160 0.489448
46992 0.631579
56390 0.817394
67668 1.02613
81201 1.25562
97441 1.53885
116929 1.73676
140314 2.01271
168376 2.37594
202051 2.88312
242461 3.23346
290953 3.79124
349143 4.37725
418971 4.99884
502765 5.70968
603318 6.16168
723981 6.72811
868777 7.52185
1042532 8.24872
1251038 8.99323
1501245 9.33327
1801494 9.05366
2161792 8.24962
2594150 7.17054
3112980 6.5311
3735576 5.89711
THREADS 32
1024 0.0127449
1228 0.0134461
1473 0.0161276
1767 0.0192807
2120 0.0231046
2544 0.0276945
3052 0.0331151
3662 0.0397438
4394 0.047715
5272 0.0572101
6326 0.0686039
7591 0.0822421
9109 0.0984299
10930 0.117478
13116 0.141336
15739 0.169479
18886 0.203064
22663 0.242656
27195 0.290475
32634 0.350037
39160 0.430193
46992 0.580613
56390 0.766778
67668 0.927166
81201 1.14129
97441 1.36839
116929 1.61138
140314 1.96153
168376 2.25615
202051 2.61752
242461 3.04549
290953 3.76369
349143 4.30323
418971 4.90159
502765 5.56571
603318 6.3039
723981 6.70129
868777 7.4756
1042532 8.32355
1251038 9.12116
1501245 9.24122
1801494 9.34029
2161792 7.94633
2594150 6.84158
3112980 6.18378
3735576 5.97678
fusion-shm07 (shm-20190905) - CentOS Linux release 7.4.1708 (Core) 
2 x Intel(R) Xeon(R) Gold 6148 CPU @ 2.40GHz (20 cores)
Architecture x86_64 - Hyperthreading OFF - Turbo OFF
Thu Mar 12 15:08:01 CET 2020

real	0m2.006s
user	0m0.000s
sys	0m0.001s
