THREADS 4
1024 0.0530414
1228 0.0644195
1473 0.0760459
1767 0.0930782
2120 0.111724
2544 0.148192
3052 0.169126
3662 0.174639
4394 0.200198
5272 0.226923
6326 0.254453
7591 0.276919
9109 0.303645
10930 0.331114
13116 0.353286
15739 0.37808
18886 0.399932
22663 0.42387
27195 0.443703
32634 0.461612
39160 0.476936
46992 0.490565
56390 0.501626
67668 0.512333
81201 0.521673
97441 0.529312
116929 0.535708
140314 0.541224
168376 0.545983
202051 0.549628
242461 0.553259
290953 0.555853
349143 0.558347
418971 0.560255
502765 0.562064
603318 0.563228
723981 0.564538
868777 0.565349
1042532 0.56631
1251038 0.567185
1501245 0.567945
1801494 0.568579
2161792 0.569162
2594150 0.569883
3112980 0.570557
3735576 0.571119
THREADS 12
1024 0.0291005
1228 0.0365792
1473 0.0454505
1767 0.0577539
2120 0.0694989
2544 0.0826063
3052 0.10246
3662 0.126736
4394 0.151714
5272 0.179929
6326 0.214456
7591 0.24918
9109 0.300793
10930 0.35731
13116 0.409137
15739 0.483239
18886 0.547748
22663 0.632568
27195 0.671104
32634 0.727484
39160 0.779095
46992 0.827556
56390 0.870291
67668 0.913841
81201 0.950162
97441 0.983719
116929 1.01885
140314 1.04473
168376 1.06499
202051 1.0881
242461 1.10175
290953 1.11028
349143 1.13037
418971 1.13491
502765 1.15063
603318 1.1554
723981 1.16074
868777 1.14843
1042532 1.17087
1251038 1.17515
1501245 1.1784
1801494 1.18198
2161792 1.18442
2594150 1.18832
3112980 1.18948
3735576 1.19253
THREADS 20
1024 0.0169862
1228 0.0214667
1473 0.0268525
1767 0.0346865
2120 0.0403348
2544 0.0502095
3052 0.0602384
3662 0.0732681
4394 0.0890101
5272 0.11093
6326 0.131904
7591 0.157381
9109 0.188652
10930 0.226165
13116 0.273628
15739 0.325973
18886 0.384494
22663 0.459235
27195 0.543573
32634 0.636389
39160 0.74514
46992 0.857129
56390 0.97993
67668 1.12351
81201 1.24722
97441 1.34352
116929 1.42371
140314 1.49463
168376 1.55739
202051 1.61903
242461 1.66456
290953 1.70564
349143 1.74024
418971 1.78181
502765 1.82213
603318 1.84538
723981 1.86918
868777 1.88591
1042532 1.90208
1251038 1.9145
1501245 1.92667
1801494 1.93496
2161792 1.94456
2594150 1.95304
3112980 1.96012
3735576 1.96713
THREADS 28
1024 0.00199518
1228 0.00254454
1473 0.00318512
1767 0.00394304
2120 0.0048895
2544 0.00597953
3052 0.0073296
3662 0.0088644
4394 0.0107989
5272 0.013044
6326 0.015767
7591 0.0189657
9109 0.0228767
10930 0.02747
13116 0.0330265
15739 0.0396104
18886 0.0473452
22663 0.0563595
27195 0.0668429
32634 0.0793692
39160 0.094216
46992 0.110879
56390 0.131679
67668 0.155428
81201 0.183658
97441 0.216979
116929 0.256372
140314 0.303857
168376 0.358748
202051 0.423755
242461 0.501346
290953 0.586976
349143 0.681907
418971 0.767821
502765 0.814744
603318 0.855065
723981 0.936695
868777 1.01969
1042532 1.10355
1251038 1.20315
1501245 1.28174
1801494 1.35019
2161792 1.41856
2594150 1.51374
3112980 1.57205
3735576 1.58488
